Working Memory Impairs Joint Simon Effect
…
1.  

. 

    ,     .     .

wAcc1stLev <- WW %>% 
  group_by(Group, SID) %>% #  >    ,
  summarise(Accuracy = mean(Correct)) %>% # Correct  Accuracy .
  ungroup()
wAcc1stLev

## # A tibble: 64 x 3
##    Group   SID Accuracy
##    <fct> <int>    <dbl>
##  1 Low     109    0.917
##  2 Low     110    1    
##  3 Low     111    1    
##  4 Low     112    1    
##  5 Low     113    1    
##  6 Low     114    1    
##  7 Low     115    1    
##  8 Low     116    0.917
##  9 Low     123    1    
## 10 Low     124    0.667
## # ... with 54 more rows
…
## [1] 0

# 1st-level
wRT1stLev <- tWW %>% 
  filter(Outlier==FALSE) %>% 
  group_by(Group, SID) %>% #  >    ,
  summarise(RT = mean(RT)) %>% # RT  RT .
  ungroup()
wRT1stLev

## # A tibble: 64 x 3
##    Group   SID    RT
##    <fct> <int> <dbl>
##  1 Low     109 0.762
##  2 Low     110 0.865
##  3 Low     111 0.988
##  4 Low     112 1.05 
##  5 Low     113 1.02 
##  6 Low     114 1.08 
##  7 Low     115 1.16 
##  8 Low     116 0.965
##  9 Low     123 0.962
## 10 Low     124 0.880
## # ... with 54 more rows
…
## [1] 1.131494

sTT <- tTT %>% filter(!Outlier) #     

  >  >  >    1st-level summmary ,  .     2nd-level summary .

# 1st-level
gRT1stLev <- tTT %>% 
  filter(Outlier==FALSE) %>% 
  group_by(Group, Load, Congruent, SID) %>% #  >  >  >   ,
  summarise(RT = mean(RT)) %>% 
  ungroup()
gRT1stLev

## # A tibble: 256 x 5
##    Group Load   Congruent   SID    RT
##    <fct> <fct>  <fct>     <int> <dbl>
##  1 Low   Absent congruent   109  331.
##  2 Low   Absent congruent   110  380.
##  3 Low   Absent congruent   111  322.
##  4 Low   Absent congruent   112  343.
##  5 Low   Absent congruent   113  340.
##  6 Low   Absent congruent   114  358.
##  7 Low   Absent congruent   115  376.
##  8 Low   Absent congruent   116  378.
##  9 Low   Absent congruent   123  381.
## 10 Low   Absent congruent   124  366.
## # ... with 246 more rows

gRT1stLev2 <- gRT1stLev %>% #  
  spread(Congruent, RT) %>% 
  mutate(Congruency = incongruent - congruent) %>% 
  select(Group, Load, SID, Congruency) 
gRT1stLev2

## # A tibble: 128 x 4
##    Group Load     SID Congruency
##    <fct> <fct>  <int>      <dbl>
##  1 Low   Absent   109     -10.6 
##  2 Low   Absent   110       6.47
##  3 Low   Absent   111       4.95
##  4 Low   Absent   112       7.85
##  5 Low   Absent   113      34.7 
##  6 Low   Absent   114      10.3 
##  7 Low   Absent   115      16.1 
##  8 Low   Absent   116     -10.00
##  9 Low   Absent   123      -9.94
## 10 Low   Absent   124      -5.89
## # ... with 118 more rows
…
gAcc1stLev2 <- TT %>% 
  filter(Congruent!="notme") %>% 
  droplevels %>% 
  group_by(Group, Load, Congruent, SID) %>% 
  summarise(Accuracy = mean(Correct)) %>%
  ungroup()
gAcc1stLev2

## # A tibble: 256 x 5
##    Group Load   Congruent   SID Accuracy
##    <fct> <fct>  <fct>     <int>    <dbl>
##  1 Low   Absent congruent   109    0.967
##  2 Low   Absent congruent   110    1    
##  3 Low   Absent congruent   111    1    
##  4 Low   Absent congruent   112    0.967
##  5 Low   Absent congruent   113    1    
##  6 Low   Absent congruent   114    0.917
##  7 Low   Absent congruent   115    1    
##  8 Low   Absent congruent   116    0.967
##  9 Low   Absent congruent   123    1    
## 10 Low   Absent congruent   124    0.9  
## # ... with 246 more rows
…
.   

       .

gAcc1stLev2 <- TT %>% 
  filter(Congruent=="notme") %>% 
  droplevels %>% 
  group_by(Group, Load, SID) %>%
  summarise(Accuracy = mean(Correct)) %>%
  select(Group, Load, SID, Accuracy)
gAcc1stLev2

## # A tibble: 128 x 4
## # Groups:   Group, Load [4]
##    Group Load     SID Accuracy
##    <fct> <fct>  <int>    <dbl>
##  1 Low   Absent   109    0.992
##  2 Low   Absent   110    1    
##  3 Low   Absent   111    1    
##  4 Low   Absent   112    1    
##  5 Low   Absent   113    0.983
##  6 Low   Absent   114    0.992
##  7 Low   Absent   115    1    
##  8 Low   Absent   116    1    
##  9 Low   Absent   123    1    
## 10 Low   Absent   124    0.983
## # ... with 118 more rows
…
100*sum(eTT$Outlier)/nrow(aTT) # 0.25% .

## [1] 0.2811998

pTT <- eTT %>% filter(!Outlier) #     

# 1st-level
gRT1stLev3 <- pTT %>% 
  group_by(Group, Load, Congruent, Epoch, SID) %>%
  summarise(RT = mean(RT)) %>% 
  ungroup()
gRT1stLev3

## # A tibble: 528 x 6
##    Group Load   Congruent Epoch   SID    RT
##    <fct> <fct>  <fct>     <int> <int> <dbl>
##  1 Low   Absent congruent     1   109  310.
##  2 Low   Absent congruent     1   110  427.
##  3 Low   Absent congruent     1   113  325.
##  4 Low   Absent congruent     1   114  347.
##  5 Low   Absent congruent     1   125  348.
##  6 Low   Absent congruent     1   126  330.
##  7 Low   Absent congruent     1   129  364.
##  8 Low   Absent congruent     1   130  331.
##  9 Low   Absent congruent     1   133  339.
## 10 Low   Absent congruent     1   134  312.
## # ... with 518 more rows

gRT1stLev4 <- gRT1stLev3 %>% #  
  spread(Congruent, RT) %>% 
  mutate(Congruency = incongruent - congruent) %>% 
  select(Group, Load, Epoch, SID, Congruency) 
gRT1stLev4

## # A tibble: 264 x 5
##    Group Load   Epoch   SID Congruency
##    <fct> <fct>  <int> <int>      <dbl>
##  1 Low   Absent     1   109      -7.84
##  2 Low   Absent     1   110      -6.99
##  3 Low   Absent     1   113     113.  
##  4 Low   Absent     1   114      -1.93
##  5 Low   Absent     1   125      36.5 
##  6 Low   Absent     1   126     -15.9 
##  7 Low   Absent     1   129      -1.26
##  8 Low   Absent     1   130      29.5 
##  9 Low   Absent     1   133       4.98
## 10 Low   Absent     1   134     -17.3 
## # ... with 254 more rows
…
